JJTOOLS Package document
…
First of all, we processed the file. We remove the NAs and filter the number of genes by surfaceome:

replace(data_cells, is.na(data_cells), 0) -> file_line_cells_NA
WantedData=file_line_cells_NA[file_line_cells_NA$X2 %in% surfy$`Gene symbol UniProt`, ]
WantedData
#> # A tibble: 604 x 59
#>    X1        X2        X3     X4     X5     X6     X7     X8    X9    X10    X11
#>    <chr>     <chr>  <dbl>  <dbl>  <dbl>  <dbl>  <dbl>  <dbl> <dbl>  <dbl>  <dbl>
#>  1 ENSG0000~ TSPA~   2681   1390    491   6399 9.73e3    166  9854 6.58e3    715
#>  2 ENSG0000~ ENPP4   8394   1395  19006   5593 1.42e3    873  2190 6.28e3  20435
#>  3 ENSG0000~ M6PR   34663   9508  73354 280672 3.50e5 112521 50956 2.44e5  42279
#>  4 ENSG0000~ TFPI    2690   5127     24   3366 1.17e3   9067 12959 8.01e2    958
#>  5 ENSG0000~ SLC7~  15544   3041  79969  14598 2.28e3   7696  1426 3.42e3    252
#>  6 ENSG0000~ PLXN~    949   1744   1758    210 1.15e3    189   257 1.58e3    361
#>  7 ENSG0000~ CD38    2904   4644 167132    472 1.53e3   2454 41455 1.86e3   6725
#>  8 ENSG0000~ ITGAL     67   2311    250    715 2.53e4  18274   201 7.12e2    501
#>  9 ENSG0000~ ITGA3 233246 246115 227570 650761 1.49e5  12897 16161 1.23e6 344733
#> 10 ENSG0000~ LAMP2 107444 145769 373649 238140 1.01e6 108995 51112 8.20e5  72473
#> # ... with 594 more rows, and 48 more variables: X12 <dbl>, X13 <dbl>,
#> #   X14 <dbl>, X15 <dbl>, X16 <dbl>, X17 <dbl>, X18 <dbl>, X19 <dbl>,
#> #   X20 <dbl>, X21 <dbl>, X22 <dbl>, X23 <dbl>, X24 <dbl>, X25 <dbl>,
#> #   X26 <dbl>, X27 <dbl>, X28 <dbl>, X29 <dbl>, X30 <dbl>, X31 <dbl>,
#> #   X32 <dbl>, X33 <dbl>, X34 <dbl>, X35 <dbl>, X36 <dbl>, X37 <dbl>,
#> #   X38 <dbl>, X39 <dbl>, X40 <dbl>, X41 <dbl>, X42 <dbl>, X43 <dbl>,
#> #   X44 <dbl>, X45 <dbl>, X46 <dbl>, X47 <dbl>, X48 <dbl>, X49 <dbl>, ...
…
